cache2_tb.vcd
$date
	Wed Sep 13 23:32:03 2023
$end
$version
	Icarus Verilog
$end
$timescale
	1s
$end
$scope module Cache2_tb $end
$var wire 32 ! wr_to_mem [31:0] $end
$var wire 32 " output_data [31:0] $end
$var wire 1 # mem_rw $end
$var wire 1 $ mem_en $end
$var wire 32 % mem_addr [31:0] $end
$var wire 1 & data_rdy $end
$var reg 32 ' addr [31:0] $end
$var reg 1 ( clk $end
$var reg 32 ) input_data [31:0] $end
$var reg 1 * mem_op_finish $end
$var reg 32 + mem_rd_data [31:0] $end
$var reg 1 , rd $end
$var reg 1 - rst_n $end
$var reg 1 . wr $end
$scope module _inst_test_cache $end
$var wire 32 / addr [31:0] $end
$var wire 1 ( clk $end
$var wire 1 0 hit $end
$var wire 32 1 in_data [31:0] $end
$var wire 1 * mem_op_finish $end
$var wire 1 , rd $end
$var wire 32 2 rd_from_mem [31:0] $end
$var wire 1 3 rd_start $end
$var wire 1 - rst_n $end
$var wire 1 . wr $end
$var wire 1 4 wr_start $end
$var wire 3 5 selected_way [2:0] $end
$var wire 3 6 decode_index [2:0] $end
$var wire 10 7 data_addr [9:0] $end
$var parameter 32 8 BLOCK_DATA_BYTE_SIZE $end
$var parameter 32 9 CACHE_STATE_CONFLICT_WB $end
$var parameter 32 : CACHE_STATE_GET_SEL $end
$var parameter 32 ; CACHE_STATE_MISS_READ_PREPARE $end
$var parameter 32 < CACHE_STATE_MISS_READ_PROCESS $end
$var parameter 32 = CACHE_STATE_MISS_READ_WAIT $end
$var parameter 32 > CACHE_STATE_MISS_WRITE_WAIT $end
$var parameter 32 ? CACHE_STATE_RD_PROCESS $end
$var parameter 32 @ CACHE_STATE_WB_LINE $end
$var parameter 32 A CACHE_STATE_WRITE_BACK $end
$var parameter 32 B CACHE_STATE_WRMISS_NOWR $end
$var parameter 32 C CACHE_STATE_WR_PROCESS $end
$var parameter 32 D DATA_OFFSET $end
$var parameter 32 E INDEX_BIT_SIZE $end
$var parameter 32 F SLOT_LENGTH $end
$var parameter 32 G SLOT_OFFSET $end
$var parameter 32 H TAG_BIT_SIZE $end
$var reg 4 I cache_next_state [3:0] $end
$var reg 4 J cache_state [3:0] $end
$var reg 1 K counter $end
$var reg 1 & data_rdy $end
$var reg 1 $ enable $end
$var reg 3 L hit_ptr [2:0] $end
$var reg 1 M hit_s $end
$var reg 32 N mem_addr [31:0] $end
$var reg 512 O mem_recv_buf [511:0] $end
$var reg 4 P miss_rd_cnt [3:0] $end
$var reg 1 Q miss_s $end
$var reg 4 R miss_wr_cnt [3:0] $end
$var reg 32 S out_data [31:0] $end
$var reg 1 # r_w $end
$var reg 2 T rd_D [1:0] $end
$var reg 2 U wr_D [1:0] $end
$var reg 32 V wr_to_mem [31:0] $end
$var integer 32 W i [31:0] $end
$var integer 32 X j [31:0] $end
$scope module _inst_lru $end
$var wire 1 ( clk $end
$var wire 1 M hit_happened $end
$var wire 3 Y hit_ptr [2:0] $end
$var wire 3 Z index [2:0] $end
$var wire 1 Q miss_happened $end
$var wire 1 - rst_n $end
$var wire 6 [ ptr [5:0] $end
$var wire 8 \ pos [7:0] $end
$var wire 6 ] hit_pos [5:0] $end
$var reg 64 ^ slot_ptr [63:0] $end
$var reg 3 _ way_ptr [2:0] $end
$upscope $end
$upscope $end
$upscope $end
$enddefinitions $end
$comment Show the parameter values. $end
$dumpall
b10111 H
b1000011001 G
b1000 F
b11 E
b1000000000 D
b1000 C
b101 B
b110 A
b1011 @
b1001 ?
b1010 >
b10 =
b11 <
b1 ;
b111 :
b100 9
b110 8
$end
#0
$dumpvars
b0 _
b0 ^
b0 ]
b0 \
b0 [
b0 Z
b0 Y
b1000 X
b10000 W
b0 V
b0 U
b0 T
b0 S
b0 R
0Q
b0 P
b0 O
b0 N
0M
b0 L
0K
b111 J
b101 I
b0 7
b0 6
b0 5
04
03
b0 2
b0 1
00
b0 /
0.
0-
0,
b0 +
0*
b0 )
0(
b0 '
0&
b0 %
0$
0#
b0 "
b0 !
$end
#1
b1000 X
b10000 W
1(
#2
0(
1-
#3
1(
#4
0(
#5
1(
#6
0(
b1100100 )
b1100100 1
b1000000000000 '
b1000000000000 /
1.
#7
14
b1 U
1(
#8
0(
#9
04
b1000 J
1Q
b11 U
1(
#10
0(
#11
b10000000 \
b10000000 ^
b111 5
b111 _
1K
0Q
1(
#12
0(
#13
b1010 J
b1000000000000 %
b1000000000000 N
1$
0K
1(
#14
0(
#15
b1010000000000000000000000000000000000000000000000000000000000000000000000000000000000000000000000000000000000000000000000000000000000000000000000000000000000000000000000000000000000000000000000000000000000000000000000000000000000000000000000000000000000000000000000000000000000000000000000000000000000000000000000000000000000000000000000000000000000000000000000000000000000000000000000000000000000000000000000000000000000000000000000000000000000000000000000000000000000000000000000000 O
b1 P
b1000000000100 %
b1000000000100 N
1(
b1010 +
b1010 2
1*
#16
0(
#17
1(
0*
#18
0(
#19
1(
#20
0(
#21
1(
#22
0(
#23
b10100000000000000000000000000000010100000000000000000000000000000000000000000000000000000000000000000000000000000000000000000000000000000000000000000000000000000000000000000000000000000000000000000000000000000000000000000000000000000000000000000000000000000000000000000000000000000000000000000000000000000000000000000000000000000000000000000000000000000000000000000000000000000000000000000000000000000000000000000000000000000000000000000000000000000000000000000000000000000000000000000 O
b10 P
b1000000001000 %
b1000000001000 N
1(
b10100 +
b10100 2
1*
#24
0(
#25
1(
0*
#26
0(
#27
1(
#28
0(
#29
1(
#30
0(
#31
b11110000000000000000000000000000101000000000000000000000000000000101000000000000000000000000000000000000000000000000000000000000000000000000000000000000000000000000000000000000000000000000000000000000000000000000000000000000000000000000000000000000000000000000000000000000000000000000000000000000000000000000000000000000000000000000000000000000000000000000000000000000000000000000000000000000000000000000000000000000000000000000000000000000000000000000000000000000000000000000000000000 O
b11 P
b1000000001100 %
b1000000001100 N
1(
b11110 +
b11110 2
1*
#32
0(
#33
1(
0*
#34
0(
#35
1(
#36
0(
#37
1(
#38
0(
#39
b101000000000000000000000000000000111100000000000000000000000000001010000000000000000000000000000001010000000000000000000000000000000000000000000000000000000000000000000000000000000000000000000000000000000000000000000000000000000000000000000000000000000000000000000000000000000000000000000000000000000000000000000000000000000000000000000000000000000000000000000000000000000000000000000000000000000000000000000000000000000000000000000000000000000000000000000000000000000000000000000000000 O
b100 P
b1000000010000 %
b1000000010000 N
1(
b101000 +
b101000 2
1*
#40
0(
#41
1(
0*
#42
0(
#43
1(
#44
0(
#45
1(
#46
0(
#47
b110010000000000000000000000000001010000000000000000000000000000001111000000000000000000000000000010100000000000000000000000000000010100000000000000000000000000000000000000000000000000000000000000000000000000000000000000000000000000000000000000000000000000000000000000000000000000000000000000000000000000000000000000000000000000000000000000000000000000000000000000000000000000000000000000000000000000000000000000000000000000000000000000000000000000000000000000000000000000000000000000000 O
b101 P
b1000000010100 %
b1000000010100 N
1(
b110010 +
b110010 2
1*
#48
0(
#49
1(
0*
#50
0(
#51
1(
#52
0(
#53
1(
#54
0(
#55
b111100000000000000000000000000001100100000000000000000000000000010100000000000000000000000000000011110000000000000000000000000000101000000000000000000000000000000101000000000000000000000000000000000000000000000000000000000000000000000000000000000000000000000000000000000000000000000000000000000000000000000000000000000000000000000000000000000000000000000000000000000000000000000000000000000000000000000000000000000000000000000000000000000000000000000000000000000000000000000000000000000 O
b110 P
b1000000011000 %
b1000000011000 N
1(
b111100 +
b111100 2
1*
#56
0(
#57
1(
0*
#58
0(
#59
1(
#60
0(
#61
1(
#62
0(
#63
b1000110000000000000000000000000001111000000000000000000000000000011001000000000000000000000000000101000000000000000000000000000000111100000000000000000000000000001010000000000000000000000000000001010000000000000000000000000000000000000000000000000000000000000000000000000000000000000000000000000000000000000000000000000000000000000000000000000000000000000000000000000000000000000000000000000000000000000000000000000000000000000000000000000000000000000000000000000000000000000000000000000 O
b111 P
b1000000011100 %
b1000000011100 N
1(
b1000110 +
b1000110 2
1*
#64
0(
#65
1(
0*
#66
0(
#67
1(
#68
0(
#69
1(
#70
0(
#71
b1010000000000000000000000000000010001100000000000000000000000000011110000000000000000000000000000110010000000000000000000000000001010000000000000000000000000000001111000000000000000000000000000010100000000000000000000000000000010100000000000000000000000000000000000000000000000000000000000000000000000000000000000000000000000000000000000000000000000000000000000000000000000000000000000000000000000000000000000000000000000000000000000000000000000000000000000000000000000000000000000000000 O
b1000 P
b1000000100000 %
b1000000100000 N
1(
b1010000 +
b1010000 2
1*
#72
0(
#73
1(
0*
#74
0(
#75
1(
#76
0(
#77
1(
#78
0(
#79
b1011010000000000000000000000000010100000000000000000000000000000100011000000000000000000000000000111100000000000000000000000000001100100000000000000000000000000010100000000000000000000000000000011110000000000000000000000000000101000000000000000000000000000000101000000000000000000000000000000000000000000000000000000000000000000000000000000000000000000000000000000000000000000000000000000000000000000000000000000000000000000000000000000000000000000000000000000000000000000000000000000000 O
b1001 P
b1000000100100 %
b1000000100100 N
1(
b1011010 +
b1011010 2
1*
#80
0(
#81
1(
0*
#82
0(
#83
1(
#84
0(
#85
1(
#86
0(
#87
b1100100000000000000000000000000010110100000000000000000000000000101000000000000000000000000000001000110000000000000000000000000001111000000000000000000000000000011001000000000000000000000000000101000000000000000000000000000000111100000000000000000000000000001010000000000000000000000000000001010000000000000000000000000000000000000000000000000000000000000000000000000000000000000000000000000000000000000000000000000000000000000000000000000000000000000000000000000000000000000000000000000 O
b1010 P
b1000000101000 %
b1000000101000 N
1(
b1100100 +
b1100100 2
1*
#88
0(
#89
1(
0*
#90
0(
#91
1(
#92
0(
#93
1(
#94
0(
#95
b1101110000000000000000000000000011001000000000000000000000000000101101000000000000000000000000001010000000000000000000000000000010001100000000000000000000000000011110000000000000000000000000000110010000000000000000000000000001010000000000000000000000000000001111000000000000000000000000000010100000000000000000000000000000010100000000000000000000000000000000000000000000000000000000000000000000000000000000000000000000000000000000000000000000000000000000000000000000000000000000000000000 O
b1011 P
b1000000101100 %
b1000000101100 N
1(
b1101110 +
b1101110 2
1*
#96
0(
#97
1(
0*
#98
0(
#99
1(
#100
0(
#101
1(
#102
0(
#103
b1111000000000000000000000000000011011100000000000000000000000000110010000000000000000000000000001011010000000000000000000000000010100000000000000000000000000000100011000000000000000000000000000111100000000000000000000000000001100100000000000000000000000000010100000000000000000000000000000011110000000000000000000000000000101000000000000000000000000000000101000000000000000000000000000000000000000000000000000000000000000000000000000000000000000000000000000000000000000000000000000000000 O
b1100 P
b1000000110000 %
b1000000110000 N
1(
b1111000 +
b1111000 2
1*
#104
0(
#105
1(
0*
#106
0(
#107
1(
#108
0(
#109
1(
#110
0(
#111
b10000010000000000000000000000000011110000000000000000000000000000110111000000000000000000000000001100100000000000000000000000000010110100000000000000000000000000101000000000000000000000000000001000110000000000000000000000000001111000000000000000000000000000011001000000000000000000000000000101000000000000000000000000000000111100000000000000000000000000001010000000000000000000000000000001010000000000000000000000000000000000000000000000000000000000000000000000000000000000000000000000000 O
b1101 P
b1000000110100 %
b1000000110100 N
1(
b10000010 +
b10000010 2
1*
#112
0(
#113
1(
0*
#114
0(
#115
1(
#116
0(
#117
1(
#118
0(
#119
b10001100000000000000000000000000100000100000000000000000000000000111100000000000000000000000000001101110000000000000000000000000011001000000000000000000000000000101101000000000000000000000000001010000000000000000000000000000010001100000000000000000000000000011110000000000000000000000000000110010000000000000000000000000001010000000000000000000000000000001111000000000000000000000000000010100000000000000000000000000000010100000000000000000000000000000000000000000000000000000000000000000 O
b1110 P
b1000000111000 %
b1000000111000 N
1(
b10001100 +
b10001100 2
1*
#120
0(
#121
1(
0*
#122
0(
#123
1(
#124
0(
#125
1(
#126
0(
#127
b10010110000000000000000000000000100011000000000000000000000000001000001000000000000000000000000001111000000000000000000000000000011011100000000000000000000000000110010000000000000000000000000001011010000000000000000000000000010100000000000000000000000000000100011000000000000000000000000000111100000000000000000000000000001100100000000000000000000000000010100000000000000000000000000000011110000000000000000000000000000101000000000000000000000000000000101000000000000000000000000000000000 O
b1111 P
b1000000111100 %
b1000000111100 N
1(
b10010110 +
b10010110 2
1*
#128
0(
#129
1(
0*
#130
0(
#131
1(
#132
0(
#133
1(
#134
0(
#135
b101 J
b0 P
1(
b10100000 +
b10100000 2
1*
#136
0(
#137
b111 ]
b111 L
b111 Y
10
b111 J
1&
0$
1(
0*
#138
0(
#139
0&
1(
#140
0(
#141
1(
#142
0(
#143
1(
#144
0(
#145
1(
#146
0(
#147
1(
#148
0(
#149
1(
#150
0(
#151
1(
#152
0(
#153
b10 U
1(
0.
#154
0(
#155
b0 U
1(
#156
0(
#157
14
b1 U
b0 ]
b0 L
b0 Y
00
1(
b100000110100 )
b100000110100 1
b10000000000000 '
b10000000000000 /
1.
#158
0(
#159
04
b11 U
b1000 J
1Q
1(
#160
0(
#161
1K
0Q
b11000000 \
b11000000 ^
b110 5
b110 _
1(
#162
0(
#163
b1010 J
b10000000000000 %
b10000000000000 N
1$
0K
1(
#164
0(
#165
1(
#166
0(
b11010010 +
b11010010 2
1*
#167
b11010010000000000000000000000000100101100000000000000000000000001000110000000000000000000000000010000010000000000000000000000000011110000000000000000000000000000110111000000000000000000000000001100100000000000000000000000000010110100000000000000000000000000101000000000000000000000000000001000110000000000000000000000000001111000000000000000000000000000011001000000000000000000000000000101000000000000000000000000000000111100000000000000000000000000001010000000000000000000000000000001010 O
b1 P
b10000000000100 %
b10000000000100 N
1(
#168
0(
0*
#169
1(
#170
0(
#171
1(
#172
0(
#173
1(
#174
0(
b11011100 +
b11011100 2
1*
#175
b11011100000000000000000000000000110100100000000000000000000000001001011000000000000000000000000010001100000000000000000000000000100000100000000000000000000000000111100000000000000000000000000001101110000000000000000000000000011001000000000000000000000000000101101000000000000000000000000001010000000000000000000000000000010001100000000000000000000000000011110000000000000000000000000000110010000000000000000000000000001010000000000000000000000000000001111000000000000000000000000000010100 O
b10 P
b10000000001000 %
b10000000001000 N
1(
#176
0(
0*
#177
1(
#178
0(
#179
1(
#180
0(
#181
1(
#182
0(
b11100110 +
b11100110 2
1*
#183
b11100110000000000000000000000000110111000000000000000000000000001101001000000000000000000000000010010110000000000000000000000000100011000000000000000000000000001000001000000000000000000000000001111000000000000000000000000000011011100000000000000000000000000110010000000000000000000000000001011010000000000000000000000000010100000000000000000000000000000100011000000000000000000000000000111100000000000000000000000000001100100000000000000000000000000010100000000000000000000000000000011110 O
b11 P
b10000000001100 %
b10000000001100 N
1(
#184
0(
0*
#185
1(
#186
0(
#187
1(
#188
0(
#189
1(
#190
0(
b11110000 +
b11110000 2
1*
#191
b11110000000000000000000000000000111001100000000000000000000000001101110000000000000000000000000011010010000000000000000000000000100101100000000000000000000000001000110000000000000000000000000010000010000000000000000000000000011110000000000000000000000000000110111000000000000000000000000001100100000000000000000000000000010110100000000000000000000000000101000000000000000000000000000001000110000000000000000000000000001111000000000000000000000000000011001000000000000000000000000000101000 O
b100 P
b10000000010000 %
b10000000010000 N
1(
#192
0(
0*
#193
1(
#194
0(
#195
1(
#196
0(
#197
1(
#198
0(
b11111010 +
b11111010 2
1*
#199
b11111010000000000000000000000000111100000000000000000000000000001110011000000000000000000000000011011100000000000000000000000000110100100000000000000000000000001001011000000000000000000000000010001100000000000000000000000000100000100000000000000000000000000111100000000000000000000000000001101110000000000000000000000000011001000000000000000000000000000101101000000000000000000000000001010000000000000000000000000000010001100000000000000000000000000011110000000000000000000000000000110010 O
b101 P
b10000000010100 %
b10000000010100 N
1(
#200
0(
0*
#201
1(
#202
0(
#203
1(
#204
0(
#205
1(
#206
0(
b100000100 +
b100000100 2
1*
#207
b100000100000000000000000000000000111110100000000000000000000000001111000000000000000000000000000011100110000000000000000000000000110111000000000000000000000000001101001000000000000000000000000010010110000000000000000000000000100011000000000000000000000000001000001000000000000000000000000001111000000000000000000000000000011011100000000000000000000000000110010000000000000000000000000001011010000000000000000000000000010100000000000000000000000000000100011000000000000000000000000000111100 O
b110 P
b10000000011000 %
b10000000011000 N
1(
#208
0(
0*
#209
1(
#210
0(
#211
1(
#212
0(
#213
1(
#214
0(
b100001110 +
b100001110 2
1*
#215
b100001110000000000000000000000001000001000000000000000000000000001111101000000000000000000000000011110000000000000000000000000000111001100000000000000000000000001101110000000000000000000000000011010010000000000000000000000000100101100000000000000000000000001000110000000000000000000000000010000010000000000000000000000000011110000000000000000000000000000110111000000000000000000000000001100100000000000000000000000000010110100000000000000000000000000101000000000000000000000000000001000110 O
b111 P
b10000000011100 %
b10000000011100 N
1(
#216
0(
0*
#217
1(
#218
0(
#219
1(
#220
0(
#221
1(
#222
0(
b100011000 +
b100011000 2
1*
#223
b100011000000000000000000000000001000011100000000000000000000000010000010000000000000000000000000011111010000000000000000000000000111100000000000000000000000000001110011000000000000000000000000011011100000000000000000000000000110100100000000000000000000000001001011000000000000000000000000010001100000000000000000000000000100000100000000000000000000000000111100000000000000000000000000001101110000000000000000000000000011001000000000000000000000000000101101000000000000000000000000001010000 O
b1000 P
b10000000100000 %
b10000000100000 N
1(
#224
0(
0*
#225
1(
#226
0(
#227
1(
#228
0(
#229
1(
#230
0(
b100100010 +
b100100010 2
1*
#231
b100100010000000000000000000000001000110000000000000000000000000010000111000000000000000000000000100000100000000000000000000000000111110100000000000000000000000001111000000000000000000000000000011100110000000000000000000000000110111000000000000000000000000001101001000000000000000000000000010010110000000000000000000000000100011000000000000000000000000001000001000000000000000000000000001111000000000000000000000000000011011100000000000000000000000000110010000000000000000000000000001011010 O
b1001 P
b10000000100100 %
b10000000100100 N
1(
#232
0(
0*
#233
1(
#234
0(
#235
1(
#236
0(
#237
1(
#238
0(
b100000110100 +
b100000110100 2
1*
#239
b100000110100000000000000000000000001001000100000000000000000000000010001100000000000000000000000000100001110000000000000000000000001000001000000000000000000000000001111101000000000000000000000000011110000000000000000000000000000111001100000000000000000000000001101110000000000000000000000000011010010000000000000000000000000100101100000000000000000000000001000110000000000000000000000000010000010000000000000000000000000011110000000000000000000000000000110111000000000000000000000000001100100 O
b1010 P
b10000000101000 %
b10000000101000 N
1(
#240
0(
0*
#241
1(
#242
0(
#243
1(
#244
0(
#245
1(
#246
0(
b100000111110 +
b100000111110 2
1*
#247
b100000111110000000000000000000001000001101000000000000000000000000010010001000000000000000000000000100011000000000000000000000000001000011100000000000000000000000010000010000000000000000000000000011111010000000000000000000000000111100000000000000000000000000001110011000000000000000000000000011011100000000000000000000000000110100100000000000000000000000001001011000000000000000000000000010001100000000000000000000000000100000100000000000000000000000000111100000000000000000000000000001101110 O
b1011 P
b10000000101100 %
b10000000101100 N
1(
#248
0(
0*
#249
1(
#250
0(
#251
1(
#252
0(
#253
1(
#254
0(
b100001001000 +
b100001001000 2
1*
#255
b100001001000000000000000000000001000001111100000000000000000000010000011010000000000000000000000000100100010000000000000000000000001000110000000000000000000000000010000111000000000000000000000000100000100000000000000000000000000111110100000000000000000000000001111000000000000000000000000000011100110000000000000000000000000110111000000000000000000000000001101001000000000000000000000000010010110000000000000000000000000100011000000000000000000000000001000001000000000000000000000000001111000 O
b1100 P
b10000000110000 %
b10000000110000 N
1(
#256
0(
0*
#257
1(
#258
0(
#259
1(
#260
0(
#261
1(
#262
0(
b100001010010 +
b100001010010 2
1*
#263
b100001010010000000000000000000001000010010000000000000000000000010000011111000000000000000000000100000110100000000000000000000000001001000100000000000000000000000010001100000000000000000000000000100001110000000000000000000000001000001000000000000000000000000001111101000000000000000000000000011110000000000000000000000000000111001100000000000000000000000001101110000000000000000000000000011010010000000000000000000000000100101100000000000000000000000001000110000000000000000000000000010000010 O
b1101 P
b10000000110100 %
b10000000110100 N
1(
#264
0(
0*
#265
1(
#266
0(
#267
1(
#268
0(
#269
1(
#270
0(
b100001011100 +
b100001011100 2
1*
#271
b100001011100000000000000000000001000010100100000000000000000000010000100100000000000000000000000100000111110000000000000000000001000001101000000000000000000000000010010001000000000000000000000000100011000000000000000000000000001000011100000000000000000000000010000010000000000000000000000000011111010000000000000000000000000111100000000000000000000000000001110011000000000000000000000000011011100000000000000000000000000110100100000000000000000000000001001011000000000000000000000000010001100 O
b1110 P
b10000000111000 %
b10000000111000 N
1(
#272
0(
0*
#273
1(
#274
0(
#275
1(
#276
0(
#277
1(
#278
0(
b100001100110 +
b100001100110 2
1*
#279
b100001100110000000000000000000001000010111000000000000000000000010000101001000000000000000000000100001001000000000000000000000001000001111100000000000000000000010000011010000000000000000000000000100100010000000000000000000000001000110000000000000000000000000010000111000000000000000000000000100000100000000000000000000000000111110100000000000000000000000001111000000000000000000000000000011100110000000000000000000000000110111000000000000000000000000001101001000000000000000000000000010010110 O
b1111 P
b10000000111100 %
b10000000111100 N
1(
#280
0(
0*
#281
1(
#282
0(
#283
1(
#284
0(
#285
1(
#286
0(
b100001110000 +
b100001110000 2
1*
#287
b101 J
b0 P
1(
#288
0(
0*
#289
b110 ]
b110 L
b110 Y
10
b111 J
1&
0$
1(
#290
0(
#291
0&
1(
#292
0(
#293
1(
#294
0(
#295
1(
#296
0(
#297
1(
#298
0(
#299
1(
#300
0(
#301
1(
#302
0(
#303
1(
#304
0(
0.
#305
b10 U
1(
#306
0(
#307
b0 U
1(
#308
b0 ]
b0 L
b0 Y
00
0(
b11110 )
b11110 1
b11000000000000 '
b11000000000000 /
1.
#309
14
b1 U
1(
#310
0(
#311
04
b11 U
b1000 J
1Q
1(
#312
0(
#313
1K
0Q
b11100000 \
b11100000 ^
b101 5
b101 _
1(
#314
0(
#315
b1010 J
b11000000000000 %
b11000000000000 N
1$
0K
1(
#316
0(
#317
b101111000010000000000000000000001000011001100000000000000000000010000101110000000000000000000000100001010010000000000000000000001000010010000000000000000000000010000011111000000000000000000000100000110100000000000000000000000001001000100000000000000000000000010001100000000000000000000000000100001110000000000000000000000001000001000000000000000000000000001111101000000000000000000000000011110000000000000000000000000000111001100000000000000000000000001101110000000000000000000000000011010010 O
b1 P
b11000000000100 %
b11000000000100 N
1(
b101111000010 +
b101111000010 2
1*
#318
0(
#319
1(
0*
#320
0(
#321
1(
#322
0(
#323
1(
#324
0(
#325
b101111001100000000000000000000001011110000100000000000000000000010000110011000000000000000000000100001011100000000000000000000001000010100100000000000000000000010000100100000000000000000000000100000111110000000000000000000001000001101000000000000000000000000010010001000000000000000000000000100011000000000000000000000000001000011100000000000000000000000010000010000000000000000000000000011111010000000000000000000000000111100000000000000000000000000001110011000000000000000000000000011011100 O
b10 P
b11000000001000 %
b11000000001000 N
1(
b101111001100 +
b101111001100 2
1*
#326
0(
#327
1(
0*
#328
0(
#329
1(
#330
0(
#331
1(
#332
0(
#333
b101111010110000000000000000000001011110011000000000000000000000010111100001000000000000000000000100001100110000000000000000000001000010111000000000000000000000010000101001000000000000000000000100001001000000000000000000000001000001111100000000000000000000010000011010000000000000000000000000100100010000000000000000000000001000110000000000000000000000000010000111000000000000000000000000100000100000000000000000000000000111110100000000000000000000000001111000000000000000000000000000011100110 O
b11 P
b11000000001100 %
b11000000001100 N
1(
b101111010110 +
b101111010110 2
1*
#334
0(
#335
1(
0*
#336
0(
#337
1(
#338
0(
#339
1(
#340
0(
#341
b101111100000000000000000000000001011110101100000000000000000000010111100110000000000000000000000101111000010000000000000000000001000011001100000000000000000000010000101110000000000000000000000100001010010000000000000000000001000010010000000000000000000000010000011111000000000000000000000100000110100000000000000000000000001001000100000000000000000000000010001100000000000000000000000000100001110000000000000000000000001000001000000000000000000000000001111101000000000000000000000000011110000 O
b100 P
b11000000010000 %
b11000000010000 N
1(
b101111100000 +
b101111100000 2
1*
#342
0(
#343
1(
0*
#344
0(
#345
1(
#346
0(
#347
1(
#348
0(
#349
b101111101010000000000000000000001011111000000000000000000000000010111101011000000000000000000000101111001100000000000000000000001011110000100000000000000000000010000110011000000000000000000000100001011100000000000000000000001000010100100000000000000000000010000100100000000000000000000000100000111110000000000000000000001000001101000000000000000000000000010010001000000000000000000000000100011000000000000000000000000001000011100000000000000000000000010000010000000000000000000000000011111010 O
b101 P
b11000000010100 %
b11000000010100 N
1(
b101111101010 +
b101111101010 2
1*
#350
0(
#351
1(
0*
#352
0(
#353
1(
#354
0(
#355
1(
#356
0(
#357
b101111110100000000000000000000001011111010100000000000000000000010111110000000000000000000000000101111010110000000000000000000001011110011000000000000000000000010111100001000000000000000000000100001100110000000000000000000001000010111000000000000000000000010000101001000000000000000000000100001001000000000000000000000001000001111100000000000000000000010000011010000000000000000000000000100100010000000000000000000000001000110000000000000000000000000010000111000000000000000000000000100000100 O
b110 P
b11000000011000 %
b11000000011000 N
1(
b101111110100 +
b101111110100 2
1*
#358
0(
#359
1(
0*
#360
0(
#361
1(
#362
0(
#363
1(
#364
0(
#365
b101111111110000000000000000000001011111101000000000000000000000010111110101000000000000000000000101111100000000000000000000000001011110101100000000000000000000010111100110000000000000000000000101111000010000000000000000000001000011001100000000000000000000010000101110000000000000000000000100001010010000000000000000000001000010010000000000000000000000010000011111000000000000000000000100000110100000000000000000000000001001000100000000000000000000000010001100000000000000000000000000100001110 O
b111 P
b11000000011100 %
b11000000011100 N
1(
b101111111110 +
b101111111110 2
1*
#366
0(
#367
1(
0*
#368
0(
#369
1(
#370
0(
#371
1(
#372
0(
#373
b110000001000000000000000000000001011111111100000000000000000000010111111010000000000000000000000101111101010000000000000000000001011111000000000000000000000000010111101011000000000000000000000101111001100000000000000000000001011110000100000000000000000000010000110011000000000000000000000100001011100000000000000000000001000010100100000000000000000000010000100100000000000000000000000100000111110000000000000000000001000001101000000000000000000000000010010001000000000000000000000000100011000 O
b1000 P
b11000000100000 %
b11000000100000 N
1(
b110000001000 +
b110000001000 2
1*
#374
0(
#375
1(
0*
#376
0(
#377
1(
#378
0(
#379
1(
#380
0(
#381
b110000010010000000000000000000001100000010000000000000000000000010111111111000000000000000000000101111110100000000000000000000001011111010100000000000000000000010111110000000000000000000000000101111010110000000000000000000001011110011000000000000000000000010111100001000000000000000000000100001100110000000000000000000001000010111000000000000000000000010000101001000000000000000000000100001001000000000000000000000001000001111100000000000000000000010000011010000000000000000000000000100100010 O
b1001 P
b11000000100100 %
b11000000100100 N
1(
b110000010010 +
b110000010010 2
1*
#382
0(
#383
1(
0*
#384
0(
#385
1(
#386
0(
#387
1(
#388
0(
#389
b110000011100000000000000000000001100000100100000000000000000000011000000100000000000000000000000101111111110000000000000000000001011111101000000000000000000000010111110101000000000000000000000101111100000000000000000000000001011110101100000000000000000000010111100110000000000000000000000101111000010000000000000000000001000011001100000000000000000000010000101110000000000000000000000100001010010000000000000000000001000010010000000000000000000000010000011111000000000000000000000100000110100 O
b1010 P
b11000000101000 %
b11000000101000 N
1(
b110000011100 +
b110000011100 2
1*
#390
0(
#391
1(
0*
#392
0(
#393
1(
#394
0(
#395
1(
#396
0(
#397
b110000100110000000000000000000001100000111000000000000000000000011000001001000000000000000000000110000001000000000000000000000001011111111100000000000000000000010111111010000000000000000000000101111101010000000000000000000001011111000000000000000000000000010111101011000000000000000000000101111001100000000000000000000001011110000100000000000000000000010000110011000000000000000000000100001011100000000000000000000001000010100100000000000000000000010000100100000000000000000000000100000111110 O
b1011 P
b11000000101100 %
b11000000101100 N
1(
b110000100110 +
b110000100110 2
1*
#398
0(
#399
1(
0*
#400
0(
#401
1(
#402
0(
#403
1(
#404
0(
#405
b110000110000000000000000000000001100001001100000000000000000000011000001110000000000000000000000110000010010000000000000000000001100000010000000000000000000000010111111111000000000000000000000101111110100000000000000000000001011111010100000000000000000000010111110000000000000000000000000101111010110000000000000000000001011110011000000000000000000000010111100001000000000000000000000100001100110000000000000000000001000010111000000000000000000000010000101001000000000000000000000100001001000 O
b1100 P
b11000000110000 %
b11000000110000 N
1(
b110000110000 +
b110000110000 2
1*
#406
0(
#407
1(
0*
#408
0(
#409
1(
#410
0(
#411
1(
#412
0(
#413
b110000111010000000000000000000001100001100000000000000000000000011000010011000000000000000000000110000011100000000000000000000001100000100100000000000000000000011000000100000000000000000000000101111111110000000000000000000001011111101000000000000000000000010111110101000000000000000000000101111100000000000000000000000001011110101100000000000000000000010111100110000000000000000000000101111000010000000000000000000001000011001100000000000000000000010000101110000000000000000000000100001010010 O
b1101 P
b11000000110100 %
b11000000110100 N
1(
b110000111010 +
b110000111010 2
1*
#414
0(
#415
1(
0*
#416
0(
#417
1(
#418
0(
#419
1(
#420
0(
#421
b110001000100000000000000000000001100001110100000000000000000000011000011000000000000000000000000110000100110000000000000000000001100000111000000000000000000000011000001001000000000000000000000110000001000000000000000000000001011111111100000000000000000000010111111010000000000000000000000101111101010000000000000000000001011111000000000000000000000000010111101011000000000000000000000101111001100000000000000000000001011110000100000000000000000000010000110011000000000000000000000100001011100 O
b1110 P
b11000000111000 %
b11000000111000 N
1(
b110001000100 +
b110001000100 2
1*
#422
0(
#423
1(
0*
#424
0(
#425
1(
#426
0(
#427
1(
#428
0(
#429
b110001001110000000000000000000001100010001000000000000000000000011000011101000000000000000000000110000110000000000000000000000001100001001100000000000000000000011000001110000000000000000000000110000010010000000000000000000001100000010000000000000000000000010111111111000000000000000000000101111110100000000000000000000001011111010100000000000000000000010111110000000000000000000000000101111010110000000000000000000001011110011000000000000000000000010111100001000000000000000000000100001100110 O
b1111 P
b11000000111100 %
b11000000111100 N
1(
b110001001110 +
b110001001110 2
1*
#430
0(
#431
1(
0*
#432
0(
#433
1(
#434
0(
#435
1(
#436
0(
#437
b101 J
b0 P
1(
b110001011000 +
b110001011000 2
1*
#438
0(
#439
b101 ]
b101 L
b101 Y
10
b111 J
1&
0$
1(
0*
#440
0(
#441
0&
1(
#442
0(
#443
1(
#444
0(
#445
1(
#446
0(
#447
1(
#448
0(
#449
1(
#450
0(
#451
1(
#452
0(
#453
1(
#454
0(
#455
b10 U
1(
0.
#456
0(
#457
b0 U
1(
#458
0(
