control_tb.vcd
$date
	Fri Sep 01 16:22:14 2023
$end
$version
	Icarus Verilog
$end
$timescale
	1s
$end
$scope module Control_tb $end
$var wire 1 ! REG_WRITE $end
$var wire 1 " MEM_WRITE $end
$var wire 2 # MEM_TO_REG [1:0] $end
$var wire 1 $ MEM_READ $end
$var wire 1 % BRANCH $end
$var wire 1 & ALU_SRC2 $end
$var wire 1 ' ALU_SRC1 $end
$var wire 2 ( ALU_OP [1:0] $end
$var parameter 7 ) ADDI $end
$var parameter 7 * AUIPC $end
$var parameter 7 + BEQ $end
$var parameter 7 , JAL $end
$var parameter 7 - JALR $end
$var parameter 7 . LUI $end
$var parameter 7 / LW $end
$var parameter 7 0 OR $end
$var parameter 7 1 SLL $end
$var parameter 7 2 SLLI $end
$var parameter 7 3 SUB $end
$var parameter 7 4 SW $end
$var reg 7 5 OPCODE [6:0] $end
$var reg 1 6 clk $end
$scope module _inst_test_control $end
$var wire 7 7 opcode [6:0] $end
$var wire 3 8 opcode_sel [2:0] $end
$var reg 2 9 s_alu_op [1:0] $end
$var reg 1 ' s_alu_src1 $end
$var reg 1 & s_alu_src2 $end
$var reg 1 % s_branch $end
$var reg 1 $ s_mem_read $end
$var reg 2 : s_mem_to_reg [1:0] $end
$var reg 1 " s_mem_write $end
$var reg 1 ! s_reg_write $end
$scope module _get_opcode_sel $end
$var wire 7 ; instr_op [6:0] $end
$var reg 3 < sel [2:0] $end
$upscope $end
$upscope $end
$upscope $end
$enddefinitions $end
$comment Show the parameter values. $end
$dumpall
b100011 4
b110011 3
b10011 2
b110011 1
b110011 0
b11 /
b110111 .
b1100111 -
b1101111 ,
b1100011 +
b10111 *
b10011 )
$end
#0
$dumpvars
b0 <
b0 ;
b1 :
b1 9
b0 8
b0 7
06
b0 5
b1 (
0'
1&
0%
1$
b1 #
0"
1!
$end
#1
16
#2
06
#3
16
#4
06
#5
16
#6
06
#7
16
#8
06
#9
16
#10
0&
b101 8
b101 <
0$
b0 #
b0 :
b0 (
b0 9
06
b110011 5
b110011 7
b110011 ;
#11
16
#12
06
#13
16
#14
06
#15
16
#16
06
#17
16
#18
06
#19
16
#20
1&
1'
b1 8
b1 <
b1 (
b1 9
06
b10111 5
b10111 7
b10111 ;
#21
16
#22
06
#23
16
#24
06
#25
16
#26
06
#27
16
#28
06
#29
16
#30
b0 8
b0 <
0'
b0 (
b0 9
06
b10011 5
b10011 7
b10011 ;
#31
16
#32
06
#33
16
#34
06
#35
16
#36
06
#37
16
#38
06
#39
16
#40
0&
b101 8
b101 <
06
b110011 5
b110011 7
b110011 ;
#41
16
#42
06
#43
16
#44
06
#45
1"
1&
0!
b1 (
b1 9
b11 8
b11 <
16
b100011 5
b100011 7
b100011 ;
#46
06
#47
16
#48
06
#49
16
#50
1!
0"
b1 #
b1 :
1$
b0 8
b0 <
06
b11 5
b11 7
b11 ;
#51
16
#52
06
#53
16
#54
06
#55
b1 8
b1 <
0$
b11 #
b11 :
b10 (
b10 9
16
b110111 5
b110111 7
b110111 ;
#56
06
#57
16
#58
06
#59
16
#60
b0 (
b0 9
b0 #
b0 :
b0 8
b0 <
06
b10011 5
b10011 7
b10011 ;
#61
16
#62
06
#63
16
#64
06
#65
1%
0&
0!
b11 (
b11 9
b100 8
b100 <
16
b1100011 5
b1100011 7
b1100011 ;
#66
06
#67
16
#68
06
#69
16
#70
1!
1&
0%
b10 (
b10 9
b10 #
b10 :
b10 8
b10 <
06
b1101111 5
b1101111 7
b1101111 ;
#71
16
#72
06
#73
16
#74
06
#75
b0 8
b0 <
16
b1100111 5
b1100111 7
b1100111 ;
#76
06
#77
16
#78
06
#79
16
#80
0&
b0 #
b0 :
b101 8
b101 <
b0 (
b0 9
06
b110011 5
b110011 7
b110011 ;
